<?xml version="1.0" encoding="UTF-8" standalone="no"?>
<!-- Created with Inkscape (http://www.inkscape.org/) -->

<svg
   xmlns:dc="http://purl.org/dc/elements/1.1/"
   xmlns:cc="http://creativecommons.org/ns#"
   xmlns:rdf="http://www.w3.org/1999/02/22-rdf-syntax-ns#"
   xmlns:svg="http://www.w3.org/2000/svg"
   xmlns="http://www.w3.org/2000/svg"
   xmlns:sodipodi="http://sodipodi.sourceforge.net/DTD/sodipodi-0.dtd"
   xmlns:inkscape="http://www.inkscape.org/namespaces/inkscape"
   width="36"
   height="36"
   viewBox="0 0 36 36.000001"
   id="svg2"
   version="1.1"
   inkscape:version="0.91 r13725"
   sodipodi:docname="factory_light_disabled.svg"
   inkscape:export-filename="output.png"
   inkscape:export-xdpi="90"
   inkscape:export-ydpi="90">
  <defs
     id="defs4" />
  <sodipodi:namedview
     id="base"
     pagecolor="#848484"
     bordercolor="#272727"
     borderopacity="0.65490196"
     inkscape:pageopacity="0"
     inkscape:pageshadow="2"
     inkscape:zoom="5.6568543"
     inkscape:cx="39.263183"
     inkscape:cy="25.262171"
     inkscape:document-units="px"
     inkscape:current-layer="svg2"
     showgrid="true"
     units="px"
     borderlayer="true"
     inkscape:showpageshadow="false"
     guidecolor="#3a84cc"
     guideopacity="0.36078431"
     showguides="true"
     inkscape:guide-bbox="true"
     guidehicolor="#ff4600"
     guidehiopacity="0.39215686"
     inkscape:window-width="1920"
     inkscape:window-height="1026"
     inkscape:window-x="1080"
     inkscape:window-y="859"
     inkscape:window-maximized="1"
     inkscape:snap-bbox="true"
     inkscape:bbox-nodes="true"
     inkscape:object-nodes="true"
     inkscape:snap-intersection-paths="true"
     inkscape:snap-global="true"
     inkscape:snap-grids="false"
     inkscape:snap-center="true">
    <inkscape:grid
       type="xygrid"
       id="grid3336"
       color="#555555"
       opacity="0.03529412"
       empspacing="10"
       empcolor="#4d4d4d"
       empopacity="0.0627451"
       visible="true"
       enabled="true"
       dotted="false"
       units="mm"
       spacingx="3.5433071"
       spacingy="3.5433071" />
  </sodipodi:namedview>
  <metadata
     id="metadata7">
    <rdf:RDF>
      <cc:Work
         rdf:about="">
        <dc:format>image/svg+xml</dc:format>
        <dc:type
           rdf:resource="http://purl.org/dc/dcmitype/StillImage" />
        <dc:title></dc:title>
      </cc:Work>
    </rdf:RDF>
  </metadata>
  <g
     inkscape:label="Layer 1"
     inkscape:groupmode="layer"
     id="layer1"
     transform="translate(0,-1016.3621)">
    <g
       style="font-style:normal;font-variant:normal;font-weight:normal;font-stretch:normal;font-size:10px;line-height:125%;font-family:sans-serif;-inkscape-font-specification:'sans-serif, Normal';text-align:start;letter-spacing:0px;word-spacing:0px;writing-mode:lr-tb;text-anchor:start;fill:#4d4d4d;fill-opacity:1;stroke:none;stroke-width:1px;stroke-linecap:butt;stroke-linejoin:miter;stroke-opacity:1"
       id="text4324" />
  </g>
  <circle
     style="color:#000000;clip-rule:nonzero;display:inline;overflow:visible;visibility:visible;opacity:1;isolation:auto;mix-blend-mode:normal;color-interpolation:sRGB;color-interpolation-filters:linearRGB;solid-color:#000000;solid-opacity:1;fill:#e6e6e6;fill-opacity:1;fill-rule:nonzero;stroke:none;stroke-width:1;stroke-linecap:round;stroke-linejoin:round;stroke-miterlimit:4;stroke-dasharray:none;stroke-dashoffset:0;stroke-opacity:1;color-rendering:auto;image-rendering:auto;shape-rendering:auto;text-rendering:auto;enable-background:accumulate"
     id="circle7951"
     cx="18"
     cy="18"
     r="15" />
  <path
     style="color:#000000;clip-rule:nonzero;display:inline;overflow:visible;visibility:visible;opacity:1;isolation:auto;mix-blend-mode:normal;color-interpolation:sRGB;color-interpolation-filters:linearRGB;solid-color:#000000;solid-opacity:1;fill:#102136;fill-opacity:1;fill-rule:nonzero;stroke:none;stroke-width:1;stroke-linecap:round;stroke-linejoin:round;stroke-miterlimit:4;stroke-dasharray:none;stroke-dashoffset:0;stroke-opacity:1;color-rendering:auto;image-rendering:auto;shape-rendering:auto;text-rendering:auto;enable-background:accumulate"
     d="m 13.177265,10.0447 -0.217666,7.635029 -1.272505,0 c -0.429319,0 -0.774766,0.34697 -0.774766,0.776289 l 0,5.578624 c 0,0.42932 0.345447,0.774767 0.774766,0.774767 l 10.183084,0 0.01218,0 2.96664,0 c 0.472228,0 0.852396,-0.380168 0.852396,-0.852395 l 0,-2.910322 c 0,-0.472228 -0.380168,-0.852396 -0.852396,-0.852396 l -2.191874,0 0,-1.738278 c 0,-0.429319 -0.345447,-0.776289 -0.774766,-0.776289 l -2.164476,0 -0.216144,-7.635029 -1.864615,0 -0.216143,7.635029 -2.162954,0 -0.217665,-7.635029 -1.863093,0 z m -0.835653,11.717395 2.35931,0 0,1.360788 -2.35931,0 0,-1.360788 z m 4.659256,0 2.359309,0 0,1.360788 -2.359309,0 0,-1.360788 z m 4.657733,0.01674 2.359309,0 0,1.360789 -2.359309,0 0,-1.360789 z"
     id="rect7529"
     inkscape:connector-curvature="0" />
</svg>
