<?xml version="1.0" encoding="UTF-8" standalone="no"?>
<!-- Created with Inkscape (http://www.inkscape.org/) -->

<svg
   xmlns:dc="http://purl.org/dc/elements/1.1/"
   xmlns:cc="http://creativecommons.org/ns#"
   xmlns:rdf="http://www.w3.org/1999/02/22-rdf-syntax-ns#"
   xmlns:svg="http://www.w3.org/2000/svg"
   xmlns="http://www.w3.org/2000/svg"
   xmlns:sodipodi="http://sodipodi.sourceforge.net/DTD/sodipodi-0.dtd"
   xmlns:inkscape="http://www.inkscape.org/namespaces/inkscape"
   width="32"
   height="32"
   viewBox="0 0 32 32.000001"
   id="svg2"
   version="1.1"
   inkscape:version="0.91 r13725"
   sodipodi:docname="factory.svg"
   inkscape:export-filename="output.png"
   inkscape:export-xdpi="90"
   inkscape:export-ydpi="90">
  <defs
     id="defs4" />
  <sodipodi:namedview
     id="base"
     pagecolor="#ffffff"
     bordercolor="#272727"
     borderopacity="0.65490196"
     inkscape:pageopacity="1"
     inkscape:pageshadow="2"
     inkscape:zoom="15.713484"
     inkscape:cx="32.279514"
     inkscape:cy="18.078611"
     inkscape:document-units="px"
     inkscape:current-layer="svg2"
     showgrid="true"
     units="px"
     borderlayer="true"
     inkscape:showpageshadow="false"
     guidecolor="#3a84cc"
     guideopacity="0.36078431"
     showguides="true"
     inkscape:guide-bbox="true"
     guidehicolor="#ff4600"
     guidehiopacity="0.39215686"
     inkscape:window-width="1920"
     inkscape:window-height="1026"
     inkscape:window-x="1080"
     inkscape:window-y="859"
     inkscape:window-maximized="1"
     inkscape:snap-bbox="true"
     inkscape:bbox-nodes="true"
     inkscape:object-nodes="true"
     inkscape:snap-intersection-paths="true">
    <inkscape:grid
       type="xygrid"
       id="grid3336"
       color="#555555"
       opacity="0.03529412"
       empspacing="10"
       empcolor="#4d4d4d"
       empopacity="0.0627451"
       visible="true"
       enabled="true"
       dotted="false"
       units="mm"
       spacingx="3.5433071"
       spacingy="3.5433071" />
  </sodipodi:namedview>
  <metadata
     id="metadata7">
    <rdf:RDF>
      <cc:Work
         rdf:about="">
        <dc:format>image/svg+xml</dc:format>
        <dc:type
           rdf:resource="http://purl.org/dc/dcmitype/StillImage" />
        <dc:title></dc:title>
      </cc:Work>
    </rdf:RDF>
  </metadata>
  <g
     inkscape:label="Layer 1"
     inkscape:groupmode="layer"
     id="layer1"
     transform="translate(0,-1020.3621)">
    <g
       style="font-style:normal;font-variant:normal;font-weight:normal;font-stretch:normal;font-size:10px;line-height:125%;font-family:sans-serif;-inkscape-font-specification:'sans-serif, Normal';text-align:start;letter-spacing:0px;word-spacing:0px;writing-mode:lr-tb;text-anchor:start;fill:#4d4d4d;fill-opacity:1;stroke:none;stroke-width:1px;stroke-linecap:butt;stroke-linejoin:miter;stroke-opacity:1"
       id="text4324" />
  </g>
  <circle
     style="color:#000000;clip-rule:nonzero;display:inline;overflow:visible;visibility:visible;opacity:1;isolation:auto;mix-blend-mode:normal;color-interpolation:sRGB;color-interpolation-filters:linearRGB;solid-color:#000000;solid-opacity:1;fill:#9f5d4e;fill-opacity:1;fill-rule:nonzero;stroke:none;stroke-width:1;stroke-linecap:round;stroke-linejoin:round;stroke-miterlimit:4;stroke-dasharray:none;stroke-dashoffset:0;stroke-opacity:1;color-rendering:auto;image-rendering:auto;shape-rendering:auto;text-rendering:auto;enable-background:accumulate"
     id="path7514"
     cx="16"
     cy="16.000002"
     r="16" />
  <path
     style="color:#000000;clip-rule:nonzero;display:inline;overflow:visible;visibility:visible;opacity:1;isolation:auto;mix-blend-mode:normal;color-interpolation:sRGB;color-interpolation-filters:linearRGB;solid-color:#000000;solid-opacity:1;fill:#ffffff;fill-opacity:1;fill-rule:nonzero;stroke:none;stroke-width:1;stroke-linecap:round;stroke-linejoin:round;stroke-miterlimit:4;stroke-dasharray:none;stroke-dashoffset:0;stroke-opacity:1;color-rendering:auto;image-rendering:auto;shape-rendering:auto;text-rendering:auto;enable-background:accumulate"
     d="m 9.9961264,6.3540943 -0.2538692,8.9049697 -1.4841628,0 c -0.5007282,0 -0.9036338,0.404682 -0.9036338,0.90541 l 0,6.506524 c 0,0.500729 0.4029056,0.903635 0.9036338,0.903635 l 11.8768476,0 0.01421,0 3.460085,0 c 0.550775,0 0.994176,-0.443402 0.994176,-0.994175 l 0,-3.3944 c 0,-0.550774 -0.443401,-0.994176 -0.994176,-0.994176 l -2.556451,0 0,-2.027408 c 0,-0.500728 -0.402906,-0.90541 -0.903634,-0.90541 l -2.524496,0 -0.252095,-8.9049697 -2.174759,0 -0.252095,8.9049697 -2.52272,0 -0.25387,-8.9049697 -2.1729826,0 z m -0.9746471,13.6663607 2.7517357,0 0,1.58713 -2.7517357,0 0,-1.58713 z m 5.4342347,0 2.751736,0 0,1.58713 -2.751736,0 0,-1.58713 z m 5.432459,0.01952 2.751736,0 0,1.58713 -2.751736,0 0,-1.58713 z"
     id="rect7529"
     inkscape:connector-curvature="0" />
</svg>
